…
    storms
    

    # A tibble: 19,537 × 13
       name   year month   day  hour   lat  long status       category  wind pressure tropicalstorm_force_…¹
       <chr> <dbl> <dbl> <int> <dbl> <dbl> <dbl> <fct>           <dbl> <int>    <int>                  <int>
     1 Amy    1975     6    27     0  27.5 -79   tropical de…       NA    25     1013                     NA
     2 Amy    1975     6    27     6  28.5 -79   tropical de…       NA    25     1013                     NA
     3 Amy    1975     6    27    12  29.5 -79   tropical de…       NA    25     1013                     NA
     4 Amy    1975     6    27    18  30.5 -79   tropical de…       NA    25     1013                     NA
     5 Amy    1975     6    28     0  31.5 -78.8 tropical de…       NA    25     1012                     NA
     6 Amy    1975     6    28     6  32.4 -78.7 tropical de…       NA    25     1012                     NA
     7 Amy    1975     6    28    12  33.3 -78   tropical de…       NA    25     1011                     NA
     8 Amy    1975     6    28    18  34   -77   tropical de…       NA    30     1006                     NA
     9 Amy    1975     6    29     0  34.4 -75.8 tropical st…       NA    35     1004                     NA
    10 Amy    1975     6    29     6  34   -74.8 tropical st…       NA    40     1002                     NA
    # ℹ 19,527 more rows
    # ℹ abbreviated name: ¹​tropicalstorm_force_diameter
    # ℹ 1 more variable: hurricane_force_diameter <int>
…
    band_members %>% semi_join(band_instruments)
    

    # A tibble: 2 × 2
      name  band   
      <chr> <chr>  
    1 John  Beatles
    2 Paul  Beatles
    

    band_members %>% anti_join(band_instruments)
    

    # A tibble: 1 × 2
      name  band  
      <chr> <chr> 
    1 Mick  Stones
    

### `tidyr`表调整

基础的表调整包括多列转单列的`gather`和单列转多列的`spread`。

`gather`可以将表格的列名转换为独立的列，同时保留列值和其他列数据的对应关系。其参数格式为`gather("name_of_key_col", "name_of_value_col", cols_to_gather)`

    iris %>% gather("measurement","value",Sepal.Length:Petal.Width)
    

       Species  measurement value
    1   setosa Sepal.Length   5.1
    2   setosa Sepal.Length   4.9
    3   setosa Sepal.Length   4.7
    4   setosa Sepal.Length   4.6
    5   setosa Sepal.Length   5.0
    6   setosa Sepal.Length   5.4
    7   setosa Sepal.Length   4.6
    8   setosa Sepal.Length   5.0
    9   setosa Sepal.Length   4.4
    10  setosa Sepal.Length   4.9
     [ reached 'max' / getOption("max.print") -- omitted 590 rows ]
…
### 多列赋值

通常，`mutate`函数的一个参数一次只能返回一列。如果想要一次返回多列，可以向将表转换为`tibble`对象，然后让`fn`返回一个`data.frame`：

    as_tibble(iris) %>%
      mutate(as.data.frame(prcomp(t(pick(Sepal.Length:Petal.Width)))$rotation))
    

    # A tibble: 150 × 9
       Sepal.Length Sepal.Width Petal.Length Petal.Width Species     PC1     PC2      PC3      PC4
              <dbl>       <dbl>        <dbl>       <dbl> <fct>     <dbl>   <dbl>    <dbl>    <dbl>
     1          5.1         3.5          1.4         0.2 setosa  -0.0771 -0.121   0.00327 -0.757  
     2          4.9         3            1.4         0.2 setosa  -0.0754 -0.0995  0.0824  -0.282  
     3          4.7         3.2          1.3         0.2 setosa  -0.0709 -0.110   0.0110  -0.0304 
     4          4.6         3.1          1.5         0.2 setosa  -0.0701 -0.0968 -0.0312  -0.0110 
     5          5           3.6          1.4         0.2 setosa  -0.0751 -0.124  -0.0436   0.0337 
     6          5.4         3.9          1.7         0.4 setosa  -0.0785 -0.126  -0.0463   0.00279
     7          4.6         3.4          1.4         0.3 setosa  -0.0671 -0.112  -0.0580   0.00412
     8          5           3.4          1.5         0.2 setosa  -0.0760 -0.112  -0.0166   0.0501 
     9          4.4         2.9          1.4         0.2 setosa  -0.0670 -0.0914 -0.00383  0.00380
    10          4.9         3.1          1.5         0.1 setosa  -0.0769 -0.0999  0.0104   0.0773 
    # ℹ 140 more rows
    

### 分组操作

`mutate`和行操作支持按特定列分组(`group_by`和`rowwise`，或`by/.by`参数)，分组后每组会独立应用函数。

可以使用`group_by`将表格转换为`grouped_df`，对`grouped_df`的所有操作均会自动按组进行。`ungroup`可以取消分组。

    iris %>% group_by(Species) %>% 
      summarize(mean.L_Sepal=mean(Sepal.Length), mean.L_Petal=mean(Petal.Length), n.Sample=n()) %>% 
      ungroup()
    

    # A tibble: 3 × 4
      Species    mean.L_Sepal mean.L_Petal n.Sample
      <fct>             <dbl>        <dbl>    <int>
    1 setosa             5.01         1.46       50
    2 versicolor         5.94         4.26       50
    3 virginica          6.59         5.55       50
    

也可以在操作函数中直接指定`.by`参数

    iris %>% reframe(q=seq(0,1,0.25), L_Sepal=quantile(Sepal.Length, q), .by=Species)
    

          Species    q L_Sepal
    1      setosa 0.00     4.3
    2      setosa 0.25     4.8
    3      setosa 0.50     5.0
    4      setosa 0.75     5.2
    5      setosa 1.00     5.8
    6  versicolor 0.00     4.9
    7  versicolor 0.25     5.6
    8  versicolor 0.50     5.9
    9  versicolor 0.75     6.3
    10 versicolor 1.00     7.0
     [ reached 'max' / getOption("max.print") -- omitted 5 rows ]
…
`arrange`函数默认忽略分组，且不支持`.by/by`参数。指定了`.by_group=TRUE`后，`arrage`会先对`grouped_df`的分组列进行排序，然后在各个组内分别按指定的列或计算结果进行排序。

    data.frame(Titanic) %>% group_by(Class) %>% arrange(Freq, .by_group=TRUE)
    

    # A tibble: 32 × 5
    # Groups:   Class [4]
       Class Sex    Age   Survived  Freq
       <fct> <fct>  <fct> <fct>    <dbl>
     1 1st   Male   Child No           0
     2 1st   Female Child No           0
     3 1st   Female Child Yes          1
     4 1st   Female Adult No           4
     5 1st   Male   Child Yes          5
     6 1st   Male   Adult Yes         57
     7 1st   Male   Adult No         118
     8 1st   Female Adult Yes        140
     9 2nd   Male   Child No           0
    10 2nd   Female Child No           0
    # ℹ 22 more rows
…
### 表调整

`pivot_longer`和`pivot_wider`可以实现比`gather`和`spread`更为精细和复杂的列转换操作。

`pivot_longer`的参数格式为`pivot_longer(cols_to_gather, names_to="name_of_key_col", values_to="name_of_value_col")`，另外还提供`names_pattern`、`names_transform`等可选参数对要转换的列名进行拆分和格式转换。

    iris %>% pivot_longer(
      Sepal.Length:Petal.Width,
      names_to=c("component","measure"), names_pattern="(.*)\\.(.*)",
      values_to=c("value")
    )
    

    # A tibble: 600 × 4
       Species component measure value
       <fct>   <chr>     <chr>   <dbl>
     1 setosa  Sepal     Length    5.1
     2 setosa  Sepal     Width     3.5
     3 setosa  Petal     Length    1.4
     4 setosa  Petal     Width     0.2
     5 setosa  Sepal     Length    4.9
     6 setosa  Sepal     Width     3  
     7 setosa  Petal     Length    1.4
     8 setosa  Petal     Width     0.2
     9 setosa  Sepal     Length    4.7
    10 setosa  Sepal     Width     3.2
    # ℹ 590 more rows
    

如果只想将列名中的一部分内容转移为新行，可以使用`names_to`中的保留字`".value"`。匹配该部分的内容将继续保留为列名。

    iris %>% pivot_longer(
      Sepal.Length:Petal.Width,
      names_to=c("component",".value"), names_pattern="(.*)\\.(.*)"
    )
    

    # A tibble: 300 × 4
       Species component Length Width
       <fct>   <chr>      <dbl> <dbl>
     1 setosa  Sepal        5.1   3.5
     2 setosa  Petal        1.4   0.2
     3 setosa  Sepal        4.9   3  
     4 setosa  Petal        1.4   0.2
     5 setosa  Sepal        4.7   3.2
     6 setosa  Petal        1.3   0.2
     7 setosa  Sepal        4.6   3.1
     8 setosa  Petal        1.5   0.2
     9 setosa  Sepal        5     3.6
    10 setosa  Petal        1.4   0.2
    # ℹ 290 more rows
…
*   `base-r`向量操作风格
    *   `:`表示连续范围
    *   `c()`表示并集
    *   `-`表示排除
*   集合操作风格
    *   `&`表示交集
    *   `|`表示并集
    *   `!`表示排除

这些算符/函数既接受数字，也接受列名：

    storms %>% select(c(2:5, status:pressure&!category), 1, latitude = lat, longitude = long)
    

    # A tibble: 19,537 × 10
        year month   day  hour status               wind pressure name  latitude longitude
       <dbl> <dbl> <int> <dbl> <fct>               <int>    <int> <chr>    <dbl>     <dbl>
     1  1975     6    27     0 tropical depression    25     1013 Amy       27.5     -79  
     2  1975     6    27     6 tropical depression    25     1013 Amy       28.5     -79  
     3  1975     6    27    12 tropical depression    25     1013 Amy       29.5     -79  
     4  1975     6    27    18 tropical depression    25     1013 Amy       30.5     -79  
     5  1975     6    28     0 tropical depression    25     1012 Amy       31.5     -78.8
     6  1975     6    28     6 tropical depression    25     1012 Amy       32.4     -78.7
     7  1975     6    28    12 tropical depression    25     1011 Amy       33.3     -78  
     8  1975     6    28    18 tropical depression    30     1006 Amy       34       -77  
     9  1975     6    29     0 tropical storm         35     1004 Amy       34.4     -75.8
    10  1975     6    29     6 tropical storm         40     1002 Amy       34       -74.8
    # ℹ 19,527 more rows
…
